<svg id="Group_26" data-name="Group 26" xmlns="http://www.w3.org/2000/svg" xmlns:xlink="http://www.w3.org/1999/xlink" width="960" height="1080" viewBox="0 0 960 1080">
  <defs>
    <clipPath id="clip-path">
      <rect id="Rectangle_6" data-name="Rectangle 6" width="445" height="453" transform="translate(0 -0.155)" fill="#fff" stroke="#707070" stroke-width="1"/>
    </clipPath>
  </defs>
  <rect id="Rectangle_1" data-name="Rectangle 1" width="960" height="1080" fill="#16a084"/>
  <g id="Mask_Group_1" data-name="Mask Group 1" transform="translate(0 627.155)" clip-path="url(#clip-path)">
    <g id="Group_1" data-name="Group 1" transform="translate(-116.865 15.348)" opacity="0.6">
      <path id="Path_1" data-name="Path 1" d="M369.875,201.588c-9.713-18.476-41.218-42.636-41.218-42.636s-31.5,24.16-41.214,42.636,6.159,29.847,6.159,29.847c13.028-7.581,57.086-7.581,70.114,0C363.716,231.435,379.585,220.064,369.875,201.588Z" transform="translate(-57.409 -72.759)" fill="#0c9378"/>
      <path id="Path_2" data-name="Path 2" d="M325.133,132.277s-39.818,18.147-39.818,49.367c0,18.948,21.2,10.676,39.818,28.286,18.622-17.61,39.818-9.338,39.818-28.286C364.952,150.424,325.133,132.277,325.133,132.277Z" transform="translate(-55.138 -132.277)" fill="#0c9378"/>
      <path id="Path_3" data-name="Path 3" d="M405.085,159.613s-40.985-15.326-63.061,6.753c-13.4,13.4,7.438,22.535,8.152,48.155,25.624.714,34.758,21.552,48.158,8.156C420.41,200.6,405.085,159.613,405.085,159.613Z" transform="translate(61.391 -82.839)" fill="#0c9378"/>
      <path id="Path_4" data-name="Path 4" d="M438.263,243.33S420.12,203.512,388.9,203.512c-18.945,0-10.673,21.194-28.286,39.818,17.613,18.622,9.342,39.815,28.286,39.815C420.12,283.146,438.263,243.33,438.263,243.33Z" transform="translate(112.862 26.664)" fill="#0c9378"/>
      <path id="Path_5" data-name="Path 5" d="M407.525,323.283s15.322-40.985-6.753-63.061c-13.4-13.4-22.535,7.438-48.158,8.152-.714,25.62-21.549,34.758-8.152,48.155C366.537,338.608,407.525,323.283,407.525,323.283Z" transform="translate(66.829 143.194)" fill="#0c9378"/>
      <path id="Path_6" data-name="Path 6" d="M328.58,356.46S368.4,338.313,368.4,307.093c0-18.948-21.194-10.676-39.815-28.286-18.625,17.61-39.818,9.338-39.818,28.286C288.762,338.313,328.58,356.46,328.58,356.46Z" transform="translate(-47.448 194.665)" fill="#0c9378"/>
      <path id="Path_7" data-name="Path 7" d="M243.852,325.722s40.988,15.322,63.064-6.753c13.4-13.4-7.438-22.535-8.152-48.158-25.624-.714-34.762-21.549-48.158-8.152C228.529,284.734,243.852,325.722,243.852,325.722Z" transform="translate(-159.203 148.632)" fill="#0c9378"/>
      <path id="Path_8" data-name="Path 8" d="M214.08,246.777s18.147,39.815,49.37,39.815c18.945,0,10.673-21.194,28.286-39.815-17.613-18.625-9.342-39.818-28.286-39.818C232.227,206.959,214.08,246.777,214.08,246.777Z" transform="translate(-214.08 34.356)" fill="#0c9378"/>
      <path id="Path_9" data-name="Path 9" d="M241.415,162.049s-15.322,40.985,6.753,63.064c13.4,13.4,22.535-7.438,48.155-8.156.717-25.62,21.552-34.758,8.156-48.155C282.4,146.726,241.415,162.049,241.415,162.049Z" transform="translate(-164.641 -77.4)" fill="#0c9378"/>
      <path id="Path_10" data-name="Path 10" d="M391.489,235.871c6.2-19.93,1-59.293,1-59.293s-39.36-5.189-59.29,1-16.751,25.459-16.751,25.459c14.573,3.855,45.725,35.007,49.577,49.58C366.03,252.622,385.292,255.8,391.489,235.871Z" transform="translate(13.923 -37.972)" fill="#0c9378"/>
      <path id="Path_11" data-name="Path 11" d="M340.79,155.926c-11.28,2.879-25.191,9.161-34.073,22.842,0,0,29.827,15.833,30.254,42.268,16.095-20.977,49.483-15.92,49.483-15.92,1.018-16.279-6.411-29.611-13.755-38.645A31.176,31.176,0,0,0,340.79,155.926Z" transform="translate(-7.386 -81.676)" fill="#0c9378"/>
      <path id="Path_12" data-name="Path 12" d="M390.141,191.374c-10.01-5.942-24.286-11.338-40.242-7.942,0,0,9.894,32.283-8.495,51.28,26.212-3.451,46.245,23.733,46.245,23.733,12.23-10.792,16.4-25.472,17.6-37.052A31.166,31.166,0,0,0,390.141,191.374Z" transform="translate(70.009 -20.49)" fill="#0c9378"/>
      <path id="Path_13" data-name="Path 13" d="M365.38,288.07c18.476-9.71,42.639-41.214,42.639-41.214s-24.163-31.5-42.639-41.214-29.844,6.159-29.844,6.159c7.58,13.028,7.58,57.086,0,70.114C335.536,281.914,346.907,297.783,365.38,288.07Z" transform="translate(56.916 24.393)" fill="#0c9378"/>
      <path id="Path_14" data-name="Path 14" d="M407.62,258.57c-2.876-11.28-9.157-25.187-22.838-34.07,0,0-15.833,29.824-42.268,30.254,20.974,16.095,15.917,49.48,15.917,49.48,16.282,1.018,29.614-6.411,38.646-13.752A31.174,31.174,0,0,0,407.62,258.57Z" transform="translate(72.485 73.493)" fill="#0c9378"/>
      <path id="Path_15" data-name="Path 15" d="M335.089,309.686c19.933,6.2,59.293,1,59.293,1s5.193-39.36-1-59.293-25.459-16.747-25.459-16.747c-3.852,14.573-35,45.725-49.577,49.577C318.342,284.228,315.159,303.489,335.089,309.686Z" transform="translate(18.136 95.726)" fill="#0c9378"/>
      <path id="Path_16" data-name="Path 16" d="M378.072,308.338c5.942-10.01,11.335-24.289,7.942-40.245,0,0-32.286,9.9-51.28-8.492C338.185,285.813,311,305.846,311,305.846c10.792,12.23,25.472,16.4,37.052,17.6A31.169,31.169,0,0,0,378.072,308.338Z" transform="translate(2.173 151.812)" fill="#0c9378"/>
      <path id="Path_17" data-name="Path 17" d="M290.113,283.577c9.713,18.476,41.214,42.636,41.214,42.636s31.5-24.16,41.217-42.636-6.159-29.844-6.159-29.844c-13.028,7.577-57.086,7.577-70.114,0C296.272,253.733,280.4,265.1,290.113,283.577Z" transform="translate(-51.451 138.719)" fill="#0c9378"/>
      <path id="Path_18" data-name="Path 18" d="M313.472,325.817c11.28-2.879,25.191-9.157,34.073-22.838,0,0-29.828-15.833-30.254-42.268-16.095,20.974-49.483,15.917-49.483,15.917-1.018,16.282,6.411,29.614,13.755,38.645A31.17,31.17,0,0,0,313.472,325.817Z" transform="translate(-94.411 154.288)" fill="#0c9378"/>
      <path id="Path_19" data-name="Path 19" d="M261.276,253.286c-6.2,19.933-1,59.293-1,59.293s39.36,5.193,59.29-1,16.751-25.459,16.751-25.459c-14.573-3.852-45.725-35.007-49.58-49.577C286.732,236.539,267.47,233.356,261.276,253.286Z" transform="translate(-115.561 99.939)" fill="#0c9378"/>
      <path id="Path_20" data-name="Path 20" d="M252.78,296.269c10.014,5.939,24.289,11.335,40.245,7.942,0,0-9.894-32.286,8.495-51.283-26.212,3.454-46.245-23.73-46.245-23.73-12.233,10.792-16.4,25.472-17.6,37.052A31.175,31.175,0,0,0,252.78,296.269Z" transform="translate(-161.805 83.976)" fill="#0c9378"/>
      <path id="Path_21" data-name="Path 21" d="M283.391,208.311c-18.476,9.71-42.636,41.214-42.636,41.214s24.16,31.5,42.636,41.214,29.847-6.159,29.847-6.159c-7.58-13.025-7.58-57.083,0-70.111C313.238,214.47,301.867,198.6,283.391,208.311Z" transform="translate(-154.562 30.351)" fill="#0c9378"/>
      <path id="Path_22" data-name="Path 22" d="M317.673,179.472c-19.93-6.2-59.29-1-59.29-1s-5.193,39.363,1,59.293,25.459,16.747,25.459,16.747c3.852-14.57,35-45.722,49.577-49.577C334.424,204.931,337.607,185.67,317.673,179.472Z" transform="translate(-119.773 -33.76)" fill="#0c9378"/>
      <path id="Path_23" data-name="Path 23" d="M237.729,231.255c2.879,11.28,9.16,25.187,22.841,34.073,0,0,15.833-29.827,42.268-30.257-20.977-16.092-15.92-49.48-15.92-49.48-16.279-1.018-29.611,6.411-38.642,13.755A31.168,31.168,0,0,0,237.729,231.255Z" transform="translate(-163.479 -13.531)" fill="#0c9378"/>
      <path id="Path_24" data-name="Path 24" d="M273.176,170.977c-5.942,10.014-11.335,24.289-7.942,40.245,0,0,32.283-9.9,51.28,8.495-3.451-26.215,23.733-46.245,23.733-46.245-10.792-12.233-25.472-16.408-37.052-17.6A31.169,31.169,0,0,0,273.176,170.977Z" transform="translate(-102.292 -80.002)" fill="#0c9378"/>
      <path id="Path_25" data-name="Path 25" d="M440.075,326.319c0,37.7-27.559,68.4-61.975,69.636h-.149c-.663.019-1.341.036-2.02.036h-.646c-.33,0-.678,0-1.011-.016-59.9-.5-108.311-47.57-108.311-105.555,0-58.288,48.956-105.554,109.322-105.554a111.481,111.481,0,0,1,62.9,19.21c-14.192-3.651-46.123-9.461-67.785,5.251-28.154,19.119-25.472,54.853-25.388,55.952a59.964,59.964,0,0,1,30.92-8.614C411.356,256.664,440.075,287.848,440.075,326.319Z" transform="translate(-98.315 -14.939)" fill="#0c9378"/>
    </g>
  </g>
</svg>
