<svg xmlns="http://www.w3.org/2000/svg" width="38" height="38" viewBox="0 0 38 38">
    <defs>
        <style>
            .cls-1{fill:none}.cls-2{fill:#8bcfc1}
        </style>
    </defs>
    <g id="Group_75" data-name="Group 75" transform="translate(-206 -132)">
        <g id="Group_4" data-name="Group 4" transform="translate(351 36)">
            <path id="Rectangle_2" d="M0 0h24v24H0z" class="cls-1" data-name="Rectangle 2" transform="translate(-138 103)"/>
            <g id="Group_8" data-name="Group 8" transform="translate(246.674 165.29)">
                <path id="Path_33" d="M273.38 19.327a2.808 2.808 0 1 0-2.808-2.808 2.809 2.809 0 0 0 2.808 2.808z" class="cls-2" data-name="Path 33" transform="translate(-646.302 -75)"/>
                <path id="Path_34" d="M245.053 128.5c-.4-5.327-3.174-6.516-3.909-6.739a2.377 2.377 0 0 0-1.681 0c-.735.223-3.509 1.412-3.91 6.739a.891.891 0 0 0 .822.956h.068a.891.891 0 0 0 .888-.824 9.823 9.823 0 0 1 .6-2.862v1.861L236.9 132.1a.3.3 0 0 0 .292.367h.792v4.113a1.04 1.04 0 0 0 2.079 0v-4.113h.468v4.113a1.04 1.04 0 0 0 2.079 0v-4.113h.793a.3.3 0 0 0 .285-.394l-1.015-4.437v-1.853a9.774 9.774 0 0 1 .6 2.854.891.891 0 0 0 .888.824h.068a.891.891 0 0 0 .824-.961z" class="cls-2" data-name="Path 34" transform="translate(-613.224 -176.906)"/>
            </g>
        </g>
        <circle id="Ellipse_8" cx="19" cy="19" r="19" class="cls-1" data-name="Ellipse 8" transform="translate(206 132)"/>
    </g>
</svg>
